<?xml version="1.0" standalone="no"?>
<!DOCTYPE svg PUBLIC "-//W3C//DTD SVG 20010904//EN"
 "http://www.w3.org/TR/2001/REC-SVG-20010904/DTD/svg10.dtd">
<svg version="1.0" xmlns="http://www.w3.org/2000/svg"
 width="1313.000000pt" height="1313.000000pt" viewBox="0 0 1313.000000 1313.000000"
 preserveAspectRatio="xMidYMid meet">
<metadata>
Created by potrace 1.11, written by Peter Selinger 2001-2013
</metadata>
<g transform="translate(0.000000,1313.000000) scale(0.100000,-0.100000)"
fill="#000000" stroke="none">
<path d="M5895 13009 c-45 -22 -49 -42 -50 -266 l-1 -211 724 1 725 2 -1 125
c-2 332 2 299 -33 331 l-31 29 -656 -1 c-411 0 -665 -4 -677 -10z"/>
<path d="M5425 12403 c-46 -9 -114 -38 -170 -75 -102 -67 -176 -179 -194 -294
-4 -31 -8 -450 -7 -933 2 -827 3 -879 20 -931 37 -109 128 -215 226 -265 115
-57 46 -55 1260 -53 613 1 1135 5 1160 10 50 9 118 36 138 55 7 7 18 13 23 13
21 0 120 112 147 166 58 117 55 66 55 1034 -1 892 -1 895 -23 960 -42 126
-125 219 -250 279 l-75 36 -1145 1 c-630 0 -1154 -1 -1165 -3z m692 -924 c122
-33 157 -184 64 -280 -26 -27 -59 -40 -104 -41 -177 -3 -238 230 -81 310 44
23 69 25 121 11z m1035 -18 c49 -34 68 -65 75 -120 19 -164 -183 -249 -290
-122 -68 81 -35 213 64 255 47 20 111 14 151 -13z m-1010 -756 c79 -63 180
-119 257 -141 64 -20 94 -22 191 -19 157 5 253 39 365 130 69 56 97 68 129 54
64 -29 47 -94 -40 -160 -85 -64 -105 -76 -196 -113 -106 -42 -140 -49 -267
-51 -151 -3 -276 30 -400 104 -74 44 -159 118 -161 141 -6 41 2 60 28 74 39
21 45 20 94 -19z"/>
<path d="M5634 9732 c-20 -3 -20 -8 -18 -120 l2 -117 951 -3 950 -2 0 120 -1
120 -346 0 c-191 1 -610 2 -932 3 -322 1 -594 1 -606 -1z"/>
<path d="M6915 9373 c-16 -2 -451 -4 -965 -5 l-935 -3 -40 -22 c-42 -22 -76
-76 -89 -138 -4 -16 -9 -41 -11 -55 -13 -60 -26 -127 -31 -155 -2 -16 -22
-128 -44 -248 -22 -119 -43 -234 -46 -255 -3 -20 -9 -53 -14 -72 -5 -19 -14
-69 -20 -110 -7 -41 -14 -84 -17 -95 -5 -25 -21 -111 -28 -150 -3 -16 -8 -43
-11 -60 -3 -16 -7 -39 -9 -50 -1 -11 -12 -72 -23 -135 -12 -63 -24 -128 -26
-145 -3 -16 -16 -88 -30 -160 -13 -71 -27 -147 -30 -168 -3 -21 -28 -161 -55
-310 -27 -150 -52 -289 -55 -309 -3 -21 -10 -57 -15 -80 -5 -24 -12 -59 -15
-78 -3 -19 -8 -45 -10 -56 -2 -12 -7 -37 -10 -55 -6 -34 -8 -45 -28 -154 -6
-33 -12 -69 -13 -80 -2 -11 -8 -49 -15 -85 -7 -36 -14 -74 -15 -85 -19 -106
-27 -154 -31 -175 -2 -14 -7 -38 -9 -55 -3 -16 -7 -41 -10 -55 -3 -14 -8 -46
-12 -72 l-6 -48 244 -1 c298 -1 4272 -1 4348 0 l54 1 -7 38 c-3 20 -8 48 -11
61 -2 13 -18 103 -35 200 -17 97 -35 196 -40 221 -8 43 -19 103 -26 145 -1 11
-10 61 -19 110 -9 50 -18 104 -21 120 -3 17 -7 37 -9 45 -3 8 -7 31 -9 50 -3
19 -18 109 -35 200 -16 91 -33 183 -36 205 -3 22 -7 47 -10 55 -4 13 -18 90
-45 245 -17 98 -21 121 -40 230 -11 61 -24 133 -30 160 -5 28 -14 77 -19 110
-6 33 -13 74 -16 90 -36 195 -47 254 -50 275 -3 14 -11 63 -20 110 -9 47 -22
121 -30 165 -8 44 -17 91 -20 105 -3 14 -12 66 -20 115 -9 50 -20 110 -25 135
-14 67 -48 250 -54 291 -3 20 -10 47 -15 60 -5 13 -9 29 -10 34 -4 32 -25 75
-46 95 -45 43 -95 47 -515 49 -217 1 -471 3 -565 4 -93 1 -183 1 -200 0z"/>
<path d="M4385 9010 c-87 -30 -144 -67 -226 -149 -104 -104 -180 -215 -286
-421 -100 -192 -111 -214 -109 -220 0 -3 -9 -19 -22 -37 -12 -17 -22 -37 -22
-45 0 -8 -4 -18 -9 -23 -5 -6 -95 -181 -201 -390 -106 -209 -210 -413 -232
-453 -30 -55 -44 -97 -58 -175 -10 -56 -21 -115 -24 -132 -3 -16 -17 -95 -31
-175 -14 -80 -29 -165 -35 -190 -5 -25 -11 -58 -14 -75 -2 -16 -9 -55 -15 -85
-6 -30 -13 -70 -16 -90 -2 -19 -9 -60 -15 -90 -17 -87 -60 -324 -60 -333 0 -4
10 -5 23 -2 67 15 95 17 237 20 193 4 325 -14 505 -68 39 -11 72 -21 75 -22 3
-1 18 -7 33 -13 16 -7 31 -12 34 -12 7 0 60 -24 148 -67 l70 -34 6 25 c4 14
10 43 13 63 3 21 8 49 10 63 3 14 12 63 20 110 8 47 22 126 31 175 9 50 18
104 21 120 7 47 16 98 21 120 2 11 10 56 18 100 7 44 16 94 19 110 4 17 9 46
12 65 3 19 7 42 9 50 2 8 7 31 10 50 3 19 13 73 21 120 9 47 18 96 20 110 3
14 11 61 19 105 8 44 17 96 20 115 6 33 71 392 79 436 3 12 7 39 10 60 6 35
32 176 42 229 2 11 15 85 29 165 14 80 28 152 30 160 2 8 7 38 11 65 3 28 8
53 10 56 2 3 6 21 9 40 23 141 29 170 45 249 6 30 13 71 15 90 3 19 9 55 15
80 9 43 13 64 27 138 l6 33 -149 -2 c-112 -1 -161 -6 -199 -19z m-954 -2054
c19 -2 45 -7 59 -10 14 -3 39 -8 55 -11 103 -18 254 -46 275 -50 14 -2 75 -14
135 -25 246 -47 263 -52 271 -86 4 -14 0 -34 -9 -48 -18 -26 -43 -27 -157 -5
-30 5 -102 19 -160 29 -58 10 -154 28 -215 39 -60 12 -123 23 -140 26 -146 27
-243 50 -257 63 -25 22 -22 57 7 80 21 16 32 18 64 11 21 -5 53 -10 72 -13z"/>
<path d="M8419 9026 c-4 -4 56 -351 105 -606 3 -14 12 -65 21 -115 9 -49 25
-137 35 -195 10 -58 26 -145 35 -195 9 -49 29 -164 46 -255 16 -91 32 -178 35
-195 4 -27 19 -107 29 -160 3 -17 16 -88 40 -230 3 -16 8 -41 10 -55 13 -62
15 -77 20 -105 2 -16 11 -70 20 -120 9 -49 18 -103 21 -119 3 -16 6 -32 8 -35
2 -3 7 -31 11 -61 4 -30 8 -57 10 -60 2 -3 6 -27 9 -55 4 -27 9 -57 11 -65 2
-8 7 -31 10 -50 8 -43 53 -295 59 -330 3 -14 12 -65 21 -115 25 -146 25 -149
30 -162 3 -8 38 4 107 36 134 63 260 105 417 138 105 22 153 26 291 27 160 1
257 -6 295 -20 16 -7 18 -3 12 37 -4 24 -9 55 -12 69 -3 14 -10 54 -16 90 -9
56 -53 295 -64 355 -2 11 -13 72 -25 135 -11 63 -22 126 -25 140 -3 14 -9 50
-15 80 -5 30 -14 82 -20 115 -6 33 -13 76 -16 95 -9 66 -35 174 -44 185 -4 5
-75 143 -158 305 -82 162 -224 441 -314 620 -259 509 -292 564 -423 696 -153
154 -214 181 -425 183 -80 1 -148 0 -151 -3z m1434 -2070 c20 -15 22 -54 4
-77 -7 -9 -28 -19 -47 -22 -19 -4 -46 -9 -60 -12 -26 -6 -324 -62 -375 -71
-16 -3 -66 -12 -110 -20 -303 -56 -312 -57 -334 -32 -19 19 -21 40 -7 70 7 15
44 27 142 44 16 3 97 18 179 34 83 16 166 32 185 35 33 5 53 9 110 20 14 3 43
8 65 11 22 3 67 12 100 19 79 17 126 17 148 1z"/>
<path d="M3230 5732 c-60 -3 -72 -10 -77 -44 -5 -41 -44 -272 -49 -296 -3 -13
-1 -21 3 -19 15 10 119 19 198 19 169 -1 337 -41 478 -114 43 -22 79 -39 81
-37 2 2 9 40 16 84 7 44 13 87 15 95 6 36 16 98 20 133 l5 38 -67 30 c-70 31
-248 83 -318 93 -22 3 -83 8 -135 12 -52 3 -99 6 -105 7 -5 1 -35 1 -65 -1z"/>
<path d="M9688 5725 c-2 -1 -23 -5 -48 -9 -88 -11 -152 -25 -235 -50 -5 -2
-14 -5 -20 -6 -5 -2 -44 -17 -85 -35 -58 -24 -75 -36 -74 -51 1 -27 14 -116
19 -134 2 -8 6 -33 9 -55 7 -55 23 -135 28 -140 2 -3 44 16 94 40 169 85 385
122 592 101 l73 -8 -6 34 c-19 110 -36 212 -41 238 -2 8 -4 26 -6 40 -2 14 -7
28 -13 33 -9 6 -279 9 -287 2z"/>
<path d="M5846 5533 c-1 -1 -365 -3 -809 -3 l-807 -2 0 -104 0 -104 2335 0
2335 0 1 23 c1 12 2 59 3 104 l1 83 -45 1 c-166 1 -3012 4 -3014 2z"/>
<path d="M3198 5268 c-257 -29 -498 -244 -576 -513 -68 -233 -28 -559 80 -650
16 -14 33 -25 38 -25 18 0 23 51 26 245 1 110 5 209 8 220 82 307 209 456 427
505 54 12 199 10 262 -4 197 -44 348 -182 401 -368 26 -87 27 -97 27 -208 1
-121 -13 -186 -73 -339 -22 -58 -42 -116 -45 -130 -2 -13 -6 -28 -9 -33 -3 -4
-2 -18 1 -29 5 -16 12 -19 32 -14 92 23 196 163 258 350 15 44 29 91 32 105 2
14 8 42 13 63 12 56 4 206 -14 273 -16 53 -29 86 -72 179 -41 88 -173 216
-288 279 -138 76 -350 114 -528 94z"/>
<path d="M9765 5273 c-54 -6 -189 -35 -235 -50 -178 -59 -334 -194 -419 -362
-44 -86 -74 -206 -75 -301 -2 -233 140 -554 273 -618 77 -38 86 -10 41 118
-102 284 -95 251 -95 410 0 156 15 224 71 324 32 57 136 161 188 189 147 77
370 99 498 48 123 -48 227 -152 293 -294 60 -128 68 -178 71 -415 2 -228 7
-252 47 -230 57 30 107 137 123 263 11 86 4 307 -12 357 -3 9 -6 25 -8 35 -7
32 -39 107 -68 156 -15 26 -28 50 -28 52 0 3 -8 15 -17 27 -116 144 -247 234
-398 272 -59 16 -191 25 -250 19z"/>
<path d="M4390 4895 l0 -305 2177 2 2177 3 1 303 0 302 -2177 0 -2178 0 0
-305z"/>
<path d="M4448 4465 c-3 -21 -6 -64 -12 -190 -4 -71 -9 -157 -11 -190 -2 -33
-7 -116 -10 -185 -3 -69 -8 -159 -10 -200 -2 -41 -6 -131 -9 -200 -3 -69 -8
-163 -11 -210 -3 -47 -7 -132 -10 -190 -3 -58 -8 -138 -11 -177 l-5 -73 53 -1
c114 -1 1622 2 1773 4 l160 2 0 804 c0 535 -3 805 -10 807 -25 10 -1885 9
-1887 -1z"/>
<path d="M6482 4469 c-16 -6 -17 -63 -17 -807 0 -440 3 -804 7 -808 8 -8 188
-7 196 0 7 8 5 1606 -2 1613 -8 9 -162 10 -184 2z"/>
<path d="M6848 4472 l-58 -3 0 -809 0 -810 33 -1 c17 0 463 -1 991 -2 l958 -2
-6 135 c-4 74 -8 167 -10 205 -3 39 -7 133 -11 210 -3 77 -8 169 -10 205 -2
36 -7 124 -10 195 -4 72 -8 159 -10 195 -2 36 -6 121 -10 190 -9 191 -16 284
-21 289 -5 5 -1744 8 -1836 3z"/>
<path d="M4385 2730 c-24 -4 -30 -10 -31 -35 -1 -17 -4 -93 -8 -170 -4 -77 -9
-171 -11 -210 -3 -38 -7 -126 -11 -195 -3 -69 -7 -154 -9 -190 -2 -36 -6 -126
-10 -200 -3 -74 -8 -162 -10 -195 -2 -33 -7 -118 -10 -190 -3 -71 -8 -151 -9
-178 -3 -38 -1 -47 13 -47 24 -1 2034 -1 2047 -1 9 1 12 206 10 804 l-1 802
-355 2 c-882 6 -1579 8 -1605 3z"/>
<path d="M6813 2732 l-23 -3 0 -805 0 -804 28 0 c49 -1 1936 -1 1991 0 l53 0
-7 128 c-4 70 -8 159 -10 197 -2 39 -6 120 -9 180 -3 61 -8 164 -11 230 -3 66
-8 145 -10 175 -2 30 -6 116 -10 190 -14 309 -25 503 -29 508 -5 4 -1931 8
-1963 4z"/>
<path d="M4269 977 c-1 -12 -2 -35 -4 -52 -3 -43 -16 -276 -20 -370 -2 -44 -6
-120 -9 -170 -3 -49 -8 -142 -11 -205 l-6 -115 1053 1 c579 1 1058 2 1065 3 8
1 11 116 8 459 -1 251 -3 460 -4 463 0 4 -467 7 -1036 8 l-1035 1 -1 -23z"/>
<path d="M6796 993 c-3 -3 -6 -214 -6 -467 l0 -461 1060 0 c1057 0 1060 0
1061 20 1 11 1 22 1 25 0 3 -3 77 -7 165 -4 88 -8 185 -10 215 -2 30 -7 120
-11 200 -4 80 -8 161 -9 180 -2 19 -3 56 -4 83 l-1 47 -1034 0 c-568 0 -1036
-3 -1040 -7z"/>
</g>
</svg>
